VERSA analysis - Cleaning
…
Rows: 142 Columns: 669
── Column specification ────────────────────────────────────────────────────────
Delimiter: ","
chr (441): <!DOCTYPE html><html lang="en-US"><head><script nonce="ZmUfo4yHuj...
dbl (228): .gb_ka .gb_P:focus, .gb_1 .gb_P:focus{-webkit-box-shadow:0 1px 0 ...

ℹ Use `spec()` to retrieve the full column specification for this data.
ℹ Specify the column types or set `show_col_types = FALSE` to quiet this message.

versa_analysis

# A tibble: 142 × 669
   <!DOCTYPE html><html lang="en-US"><head><s…¹ Arial...2 sans-serif;z-index:9…²
   <chr>                                        <chr>     <chr>                 
 1 "try{"                                        <NA>     <NA>                  
 2 "_._F_toggles_initialize=function(a){(typeo… "_._F_to… <NA>                  
 3 "/*"                                          <NA>     <NA>                  
 4 "Copyright The Closure Library Authors."      <NA>     <NA>                  
 5 "SPDX-License-Identifier: Apache-2.0"         <NA>     <NA>                  
 6 "*/"                                          <NA>     <NA>                  
 7 "var ca"                                     "ia"      ja                    
 8 "_.da=function(a){_.t.setTimeout(function()… "0)};_.e… <NA>                  
 9 "_.pa=function(){return _.v(\"Safari\")&&!(…  <NA>     <NA>                  
10 "_.ta=function(){return qa()?ha.platform===… "b){retu… _.ua)(a               
# ℹ 132 more rows
# ℹ abbreviated names:
…
