Olivia’s Cleaning – Operation Lone Star Project
…
spurs_raw <- read_csv("data-raw/spurs_raw_data.csv") |> clean_names()

Rows: 50162 Columns: 17
── Column specification ────────────────────────────────────────────────────────
Delimiter: ","
chr (15): Arrest Date, Arrest County, Arrest Division, Arrest State, Arrest ...
dbl  (2): Arrest ID, Person Age

ℹ Use `spec()` to retrieve the full column specification for this data.
ℹ Specify the column types or set `show_col_types = FALSE` to quiet this message.

spurs_raw

# A tibble: 50,162 × 17
   arrest_date   arrest_county arrest_division arrest_id arrest_state arrest_urn
   <chr>         <chr>         <chr>               <dbl> <chr>        <chr>     
 1 6/30/2021 0:… Dimmit        Texas Highway … 176764100 TEXAS        CMAR00151…
 2 4/17/2021 0:… La Salle      Texas Highway … 168005201 TEXAS        CMAR00142…
 3 4/10/2022 0:… Val Verde     Texas Highway … 224267244 TEXAS        CMAR00184…
 4 8/30/2022 0:… Uvalde        Texas Highway … 242763908 TEXAS        CMAR00207…
 5 8/19/2021 0:… Kinney        Texas Highway … 181447247 TEXAS        CMAR00157…
 6 9/15/2021 0:… Kinney        Texas Highway … 183607562 TEXAS        CMAR00160…
 7 9/16/2021 0:… Hidalgo       Texas Highway … 183600444 TEXAS        CMAR00160…
 8 3/29/2022 0:… Kinney        Texas Highway … 222724019 TEXAS        CMAR00182…
 9 1/31/2022 0:… Val Verde     Texas Highway … 213323787 TEXAS        CMAR00176…
10 5/30/2021 0:… La Salle      Texas Highway … 176824446 TEXAS        CMAR00151…
# ℹ 50,152 more rows
# ℹ 11 more variables: arrested_by <chr>, citation <chr>, code <chr>,
#   inv_number <chr>, level_group <chr>, offense <chr>,
#   person_first_name <chr>, person_last_name <chr>, person_race <chr>,
#   person_sex <chr>, person_age <dbl>
Changing name

spurs_renamed <- spurs_raw |> 
  rename(arrest_date_old = arrest_date,
         charge = offense,
         severity_code = level_group,
         arrest_officer = arrested_by,
         gender_code = person_sex,
         statute = citation,
         ethnicity_race = person_race
         )

spurs_renamed

# A tibble: 50,162 × 17
   arrest_date_old arrest_county arrest_division      arrest_id arrest_state
   <chr>           <chr>         <chr>                    <dbl> <chr>       
 1 6/30/2021 0:00  Dimmit        Texas Highway Patrol 176764100 TEXAS       
 2 4/17/2021 0:00  La Salle      Texas Highway Patrol 168005201 TEXAS       
 3 4/10/2022 0:00  Val Verde     Texas Highway Patrol 224267244 TEXAS       
 4 8/30/2022 0:00  Uvalde        Texas Highway Patrol 242763908 TEXAS       
 5 8/19/2021 0:00  Kinney        Texas Highway Patrol 181447247 TEXAS       
 6 9/15/2021 0:00  Kinney        Texas Highway Patrol 183607562 TEXAS       
 7 9/16/2021 0:00  Hidalgo       Texas Highway Patrol 183600444 TEXAS       
 8 3/29/2022 0:00  Kinney        Texas Highway Patrol 222724019 TEXAS       
 9 1/31/2022 0:00  Val Verde     Texas Highway Patrol 213323787 TEXAS       
10 5/30/2021 0:00  La Salle      Texas Highway Patrol 176824446 TEXAS       
# ℹ 50,152 more rows
# ℹ 12 more variables: arrest_urn <chr>, arrest_officer <chr>, statute <chr>,
#   code <chr>, inv_number <chr>, severity_code <chr>, charge <chr>,
#   person_first_name <chr>, person_last_name <chr>, ethnicity_race <chr>,
#   gender_code <chr>, person_age <dbl>
…
spurs_date <- spurs_renamed |>
  mutate(
    charge_date = mdy_hm(arrest_date_old) |> date()
  )

Changing officer column

spurs_officer_cleaning <- spurs_date |> 
  mutate(new_officer = str_split_i(arrest_officer, " - ", 1), .after = arrest_officer,
         id_officer = str_split_i(arrest_officer, " - ", 2)
         )

spurs_officer_cleaning

# A tibble: 50,162 × 20
   arrest_date_old arrest_county arrest_division      arrest_id arrest_state
   <chr>           <chr>         <chr>                    <dbl> <chr>       
 1 6/30/2021 0:00  Dimmit        Texas Highway Patrol 176764100 TEXAS       
 2 4/17/2021 0:00  La Salle      Texas Highway Patrol 168005201 TEXAS       
 3 4/10/2022 0:00  Val Verde     Texas Highway Patrol 224267244 TEXAS       
 4 8/30/2022 0:00  Uvalde        Texas Highway Patrol 242763908 TEXAS       
 5 8/19/2021 0:00  Kinney        Texas Highway Patrol 181447247 TEXAS       
 6 9/15/2021 0:00  Kinney        Texas Highway Patrol 183607562 TEXAS       
 7 9/16/2021 0:00  Hidalgo       Texas Highway Patrol 183600444 TEXAS       
 8 3/29/2022 0:00  Kinney        Texas Highway Patrol 222724019 TEXAS       
 9 1/31/2022 0:00  Val Verde     Texas Highway Patrol 213323787 TEXAS       
10 5/30/2021 0:00  La Salle      Texas Highway Patrol 176824446 TEXAS       
# ℹ 50,152 more rows
# ℹ 15 more variables: arrest_urn <chr>, arrest_officer <chr>,
#   new_officer <chr>, id_officer <chr>, statute <chr>, code <chr>,
#   inv_number <chr>, severity_code <chr>, charge <chr>,
#   person_first_name <chr>, person_last_name <chr>, ethnicity_race <chr>,
#   gender_code <chr>, person_age <dbl>, charge_date <date>

Changing ethnicity column

spurs_race <- spurs_officer_cleaning |> 
  mutate(
    person_race_abbr = case_match(ethnicity_race, "White" ~ "W", "Hispanic" ~ "H", "Hispanic or Latino" ~ "H", "Black" ~ "B", "Asian" ~ "A"),
    person_gender_abbr = case_match(gender_code, "M - Male" ~ "M", "F - Female" ~ "F")
    )

spurs_race

# A tibble: 50,162 × 22
   arrest_date_old arrest_county arrest_division      arrest_id arrest_state
   <chr>           <chr>         <chr>                    <dbl> <chr>       
 1 6/30/2021 0:00  Dimmit        Texas Highway Patrol 176764100 TEXAS       
 2 4/17/2021 0:00  La Salle      Texas Highway Patrol 168005201 TEXAS       
 3 4/10/2022 0:00  Val Verde     Texas Highway Patrol 224267244 TEXAS       
 4 8/30/2022 0:00  Uvalde        Texas Highway Patrol 242763908 TEXAS       
 5 8/19/2021 0:00  Kinney        Texas Highway Patrol 181447247 TEXAS       
 6 9/15/2021 0:00  Kinney        Texas Highway Patrol 183607562 TEXAS       
 7 9/16/2021 0:00  Hidalgo       Texas Highway Patrol 183600444 TEXAS       
 8 3/29/2022 0:00  Kinney        Texas Highway Patrol 222724019 TEXAS       
 9 1/31/2022 0:00  Val Verde     Texas Highway Patrol 213323787 TEXAS       
10 5/30/2021 0:00  La Salle      Texas Highway Patrol 176824446 TEXAS       
# ℹ 50,152 more rows
# ℹ 17 more variables: arrest_urn <chr>, arrest_officer <chr>,
#   new_officer <chr>, id_officer <chr>, statute <chr>, code <chr>,
#   inv_number <chr>, severity_code <chr>, charge <chr>,
#   person_first_name <chr>, person_last_name <chr>, ethnicity_race <chr>,
#   gender_code <chr>, person_age <dbl>, charge_date <date>,
#   person_race_abbr <chr>, person_gender_abbr <chr>

Changing names to uppercase

spurs_uppercase <- spurs_race |> 
  mutate(person_first_name = str_to_upper(person_first_name),
         person_last_name = str_to_upper(person_last_name))

spurs_uppercase

# A tibble: 50,162 × 22
   arrest_date_old arrest_county arrest_division      arrest_id arrest_state
   <chr>           <chr>         <chr>                    <dbl> <chr>       
 1 6/30/2021 0:00  Dimmit        Texas Highway Patrol 176764100 TEXAS       
 2 4/17/2021 0:00  La Salle      Texas Highway Patrol 168005201 TEXAS       
 3 4/10/2022 0:00  Val Verde     Texas Highway Patrol 224267244 TEXAS       
 4 8/30/2022 0:00  Uvalde        Texas Highway Patrol 242763908 TEXAS       
 5 8/19/2021 0:00  Kinney        Texas Highway Patrol 181447247 TEXAS       
 6 9/15/2021 0:00  Kinney        Texas Highway Patrol 183607562 TEXAS       
 7 9/16/2021 0:00  Hidalgo       Texas Highway Patrol 183600444 TEXAS       
 8 3/29/2022 0:00  Kinney        Texas Highway Patrol 222724019 TEXAS       
 9 1/31/2022 0:00  Val Verde     Texas Highway Patrol 213323787 TEXAS       
10 5/30/2021 0:00  La Salle      Texas Highway Patrol 176824446 TEXAS       
# ℹ 50,152 more rows
# ℹ 17 more variables: arrest_urn <chr>, arrest_officer <chr>,
#   new_officer <chr>, id_officer <chr>, statute <chr>, code <chr>,
#   inv_number <chr>, severity_code <chr>, charge <chr>,
#   person_first_name <chr>, person_last_name <chr>, ethnicity_race <chr>,
#   gender_code <chr>, person_age <dbl>, charge_date <date>,
#   person_race_abbr <chr>, person_gender_abbr <chr>
…
spurs_charge_count <- spurs_uppercase |>
  group_by(arrest_date_old, arrest_county, arrest_division, arrest_id, arrest_state, arrest_urn, arrest_officer, new_officer, id_officer, statute, code, inv_number, severity_code, charge, person_first_name, person_last_name, ethnicity_race, gender_code, person_age, charge_date, person_race_abbr, person_gender_abbr ) |> 
  summarise(charge_count = n()) |> 
  mutate(charge_count = as.numeric(charge_count))

`summarise()` has grouped output by 'arrest_date_old', 'arrest_county',
'arrest_division', 'arrest_id', 'arrest_state', 'arrest_urn', 'arrest_officer',
'new_officer', 'id_officer', 'statute', 'code', 'inv_number', 'severity_code',
'charge', 'person_first_name', 'person_last_name', 'ethnicity_race',
'gender_code', 'person_age', 'charge_date', 'person_race_abbr'. You can
override using the `.groups` argument.

spurs_charge_count

# A tibble: 41,379 × 23
# Groups:   arrest_date_old, arrest_county, arrest_division, arrest_id,
#   arrest_state, arrest_urn, arrest_officer, new_officer, id_officer, statute,
#   code, inv_number, severity_code, charge, person_first_name,
#   person_last_name, ethnicity_race, gender_code, person_age, charge_date,
#   person_race_abbr [41,379]
   arrest_date_old arrest_county arrest_division      arrest_id arrest_state
   <chr>           <chr>         <chr>                    <dbl> <chr>       
 1 1/1/2022 0:00   Aransas       Texas Highway Patrol 209274810 TEXAS       
 2 1/1/2022 0:00   Bee           Texas Highway Patrol 210182331 TEXAS       
 3 1/1/2022 0:00   Bee           Texas Highway Patrol 223969513 TEXAS       
 4 1/1/2022 0:00   Cameron       Texas Highway Patrol 213772403 TEXAS       
 5 1/1/2022 0:00   Cameron       Texas Highway Patrol 213772403 TEXAS       
 6 1/1/2022 0:00   Ector         Texas Highway Patrol 209674362 TEXAS       
 7 1/1/2022 0:00   Ector         Texas Highway Patrol 209674362 TEXAS       
 8 1/1/2022 0:00   Ector         Texas Highway Patrol 218947954 TEXAS       
 9 1/1/2022 0:00   Ector         Texas Highway Patrol 222716516 TEXAS       
10 1/1/2022 0:00   Ector         Texas Highway Patrol 222716520 TEXAS       
# ℹ 41,369 more rows
# ℹ 18 more variables: arrest_urn <chr>, arrest_officer <chr>,
#   new_officer <chr>, id_officer <chr>, statute <chr>, code <chr>,
#   inv_number <chr>, severity_code <chr>, charge <chr>,
#   person_first_name <chr>, person_last_name <chr>, ethnicity_race <chr>,
#   gender_code <chr>, person_age <dbl>, charge_date <date>,
#   person_race_abbr <chr>, person_gender_abbr <chr>, charge_count <dbl>

Severity code

spurs_code_clean <- spurs_charge_count |> 
  mutate(severity_code_clean = str_remove(severity_code, "SPURS "), .after = severity_code)

spurs_code_clean

# A tibble: 41,379 × 24
# Groups:   arrest_date_old, arrest_county, arrest_division, arrest_id,
#   arrest_state, arrest_urn, arrest_officer, new_officer, id_officer, statute,
#   code, inv_number, severity_code, charge, person_first_name,
#   person_last_name, ethnicity_race, gender_code, person_age, charge_date,
#   person_race_abbr [41,379]
   arrest_date_old arrest_county arrest_division      arrest_id arrest_state
   <chr>           <chr>         <chr>                    <dbl> <chr>       
 1 1/1/2022 0:00   Aransas       Texas Highway Patrol 209274810 TEXAS       
 2 1/1/2022 0:00   Bee           Texas Highway Patrol 210182331 TEXAS       
 3 1/1/2022 0:00   Bee           Texas Highway Patrol 223969513 TEXAS       
 4 1/1/2022 0:00   Cameron       Texas Highway Patrol 213772403 TEXAS       
 5 1/1/2022 0:00   Cameron       Texas Highway Patrol 213772403 TEXAS       
 6 1/1/2022 0:00   Ector         Texas Highway Patrol 209674362 TEXAS       
 7 1/1/2022 0:00   Ector         Texas Highway Patrol 209674362 TEXAS       
 8 1/1/2022 0:00   Ector         Texas Highway Patrol 218947954 TEXAS       
 9 1/1/2022 0:00   Ector         Texas Highway Patrol 222716516 TEXAS       
10 1/1/2022 0:00   Ector         Texas Highway Patrol 222716520 TEXAS       
# ℹ 41,369 more rows
# ℹ 19 more variables: arrest_urn <chr>, arrest_officer <chr>,
#   new_officer <chr>, id_officer <chr>, statute <chr>, code <chr>,
#   inv_number <chr>, severity_code <chr>, severity_code_clean <chr>,
#   charge <chr>, person_first_name <chr>, person_last_name <chr>,
#   ethnicity_race <chr>, gender_code <chr>, person_age <dbl>,
#   charge_date <date>, person_race_abbr <chr>, person_gender_abbr <chr>, …
…
