Olivia’s Analysis – OLS analysis
…
Let’s get into it.

Setup

library(tidyverse)
library(janitor)

Importing cleaned data

olsdata <- read_rds("data-processed/02-combine.rds")

olsdata

# A tibble: 58,635 × 25
   primary_key charge              charge_count ethnicity charge_date person_age
   <chr>       <chr>                      <dbl> <chr>     <date>           <dbl>
 1 TX20234     Poss Marij < 2OZ               1 H         2023-01-03          27
 2 TX20234     Poss CS PG 2 >= 1G…            1 H         2023-01-03          27
 3 TX20235     WARRANT: ASSAULTIV…            1 H         2023-01-21          50
 4 TX20237     Criminal Trespass              1 H         2023-01-22          37
 5 TX20238     Criminal Trespass              1 H         2023-01-22          NA
 6 TX20239     Criminal Trespass              1 H         2023-01-22          26
 7 TX202310    Criminal Trespass              1 H         2023-01-22          21
 8 TX202311    Criminal Trespass              1 H         2023-01-22          NA
 9 TX202312    Criminal Trespass              1 H         2023-01-22          29
10 TX202313    Criminal Trespass              1 H         2023-01-22          NA
# ℹ 58,625 more rows
# ℹ 19 more variables: person_first_name <chr>, person_second_name <chr>,
#   person_third_name <chr>, person_last_name <chr>, officer_id <dbl>,
#   arrest_county <chr>, code <chr>, severity_code <chr>,
#   severity_code_clean <chr>, person_race_abbr <chr>,
#   person_gender_abbr <chr>, arrest_state <chr>, arrest_division <chr>,
#   arrest_id <dbl>, arrest_urn <chr>, arresting_officer <chr>, …

What do these numbers show us about what kinds of crimes are being committed?

Let’s arrange types of charges in descending order.

olscrimes <- olsdata |> 
  group_by(charge) |> 
  summarise(appearances = n()) |> 
  arrange(desc(appearances))

olscrimes

# A tibble: 490 × 2
   charge                                          appearances
   <chr>                                                 <int>
 1 Criminal Trespass - Disaster Area                      6869
 2 Possession Of Marihuana <2oz                           5743
 3 Smuggling Of Persons                                   5259
 4 Criminal Trespass                                      2669
 5 Poss Marij < 2OZ                                       2661
 6 Evading Arrest Detention W/Veh                         1592
 7 Possession Of Substance In Penalty Group 2 < 1g        1465
 8 Smuggling Of Persons: For Pecuniary Benefit            1272
 9 Criminal Trespass Arrests                              1247
10 Smuggling of Persons                                   1110
# ℹ 480 more rows
…
** NOTE TO SELF: This chart only shows the first 20 options. Also, do we want to include NA in all of these charts? **

All together:

olsarrestees <- olsdata |> 
  group_by(person_age, person_gender_abbr, ethnicity, person_race_abbr) |> 
  summarise(appearances = n()) |>
  arrange(desc(appearances))

`summarise()` has grouped output by 'person_age', 'person_gender_abbr',
'ethnicity'. You can override using the `.groups` argument.

olsarrestees

# A tibble: 930 × 5
# Groups:   person_age, person_gender_abbr, ethnicity [460]
   person_age person_gender_abbr ethnicity person_race_abbr appearances
        <dbl> <chr>              <chr>     <chr>                  <int>
 1         NA M                  H         H                       3707
 2         19 M                  <NA>      H                       1343
 3         21 M                  <NA>      H                       1282
 4         20 M                  <NA>      H                       1264
 5         22 M                  <NA>      H                       1246
 6         23 M                  <NA>      H                       1212
 7         24 M                  <NA>      H                       1212
 8         18 M                  <NA>      H                       1206
 9         25 M                  <NA>      H                       1117
10         26 M                  <NA>      H                       1043
# ℹ 920 more rows
…
Let’s look at county, officers, and officer ID.

Officers, ID, County:

olsofficers <- olsdata |> 
  group_by(arresting_officer, officer_id, arrest_county) |> 
  summarise(appearances = n()) |>
  arrange(desc(appearances))

`summarise()` has grouped output by 'arresting_officer', 'officer_id'. You can
override using the `.groups` argument.

olsofficers

# A tibble: 7,500 × 4
# Groups:   arresting_officer, officer_id [3,159]
   arresting_officer officer_id arrest_county appearances
   <chr>                  <dbl> <chr>               <int>
 1 <NA>                   15952 Maverick              392
 2 <NA>                   15532 Maverick              339
 3 <NA>                   15834 Maverick              287
 4 Derrick Hinojosa          NA Cameron               278
 5 <NA>                   11522 Maverick              259
 6 Jose Mendoza              NA Cameron               233
 7 <NA>                   13362 Maverick              218
 8 <NA>                   11689 Maverick              216
 9 Jose Delafuente           NA Cameron               213
10 David Poland              NA Nueces                210
# ℹ 7,490 more rows
…
cat_ols |>
  count(charge_cat, charge)

# A tibble: 490 × 3
   charge_cat charge                                                           n
   <chr>      <chr>                                                        <int>
 1 Conspiracy Attempt And Conspiracy                                           7
 2 Conspiracy Attempt And Conspiracy (21 Usc Sec 963)                          1
 3 Conspiracy Attempt And Conspiracy (Other Title 21 Violations)               4
 4 Conspiracy Conspiracy (General/Other Title 21)                             10
 5 Drug       (FENTANYL) POSS CS PG 1 <1G                                      1
 6 Drug       (HEROIN) POSS CS PG 1 <1G                                        1
 7 Drug       Conspiracy To Possess With Intent To Distribute Controlled …   201
 8 Drug       Conspiracy To Sale/Manfct/Dist Controlled Substance            122
 9 Drug       Controlled Substance Offenses-Felony                           110
10 Drug       Controlled Substance Offenses-Misdemeanor                       11
# ℹ 480 more rows
…
smuggle_ols <- cat_ols |>
    group_by(person_race_abbr, charge_cat, arrest_county) |>
    summarise(appearances = n()) |>
    arrange(desc(appearances)) |>
    filter(charge_cat == "Smuggling/Trafficking of Persons") |>
    select(!charge_cat)

`summarise()` has grouped output by 'person_race_abbr', 'charge_cat'. You can
override using the `.groups` argument.
Adding missing grouping variables: `charge_cat`

smuggle_ols

# A tibble: 163 × 4
# Groups:   person_race_abbr, charge_cat [6]
   charge_cat                       person_race_abbr arrest_county appearances
   <chr>                            <chr>            <chr>               <int>
 1 Smuggling/Trafficking of Persons H                Kinney               1347
 2 Smuggling/Trafficking of Persons H                El Paso              1230
 3 Smuggling/Trafficking of Persons H                Hidalgo               884
 4 Smuggling/Trafficking of Persons H                Webb                  555
 5 Smuggling/Trafficking of Persons H                Val Verde             492
 6 Smuggling/Trafficking of Persons H                Uvalde                486
 7 Smuggling/Trafficking of Persons H                Maverick              475
 8 Smuggling/Trafficking of Persons B                Kinney                448
 9 Smuggling/Trafficking of Persons H                Zavala                399
10 Smuggling/Trafficking of Persons W                Kinney                305
# ℹ 153 more rows
…
Let’s break down the smuggling category by county for Black offenders to see where they are most commonly being arrested (not where they are from necessarily).

b_smuggling <- cat_ols |>
  group_by(arrest_county, arrest_state, person_race_abbr, charge_cat) |>
  filter(person_race_abbr == "B", charge_cat == "Smuggling/Trafficking of Persons") |> 
  summarise(appearances = n()) |> 
  arrange(desc(appearances))

`summarise()` has grouped output by 'arrest_county', 'arrest_state',
'person_race_abbr'. You can override using the `.groups` argument.

b_smuggling

# A tibble: 38 × 5
# Groups:   arrest_county, arrest_state, person_race_abbr [38]
   arrest_county arrest_state person_race_abbr charge_cat            appearances
   <chr>         <chr>        <chr>            <chr>                       <int>
 1 Kinney        TEXAS        B                Smuggling/Traffickin…         448
 2 Val Verde     TEXAS        B                Smuggling/Traffickin…         130
 3 Maverick      TEXAS        B                Smuggling/Traffickin…         109
 4 Uvalde        TEXAS        B                Smuggling/Traffickin…          94
 5 Zavala        TEXAS        B                Smuggling/Traffickin…          73
 6 Edwards       TEXAS        B                Smuggling/Traffickin…          66
 7 Dimmit        TEXAS        B                Smuggling/Traffickin…          48
 8 Sutton        TEXAS        B                Smuggling/Traffickin…          34
 9 El Paso       TEXAS        B                Smuggling/Traffickin…          23
10 La Salle      TEXAS        B                Smuggling/Traffickin…          22
# ℹ 28 more rows

kinney_b_smuggling <- cat_ols |> 
  group_by(arrest_county, arrest_state, person_race_abbr, charge_cat) |> 
  filter(arrest_county == "Kinney", person_race_abbr == "B", charge_cat == "Smuggling/Trafficking of Persons") 

kinney_b_smuggling

# A tibble: 448 × 27
# Groups:   arrest_county, arrest_state, person_race_abbr, charge_cat [1]
   primary_key charge              charge_count ethnicity charge_date person_age
   <chr>       <chr>                      <dbl> <chr>     <date>           <dbl>
 1 TX202356    Smuggling of Perso…            5 N         2023-01-21          30
 2 TX202356    Smuggling of Perso…            2 N         2023-01-21          30
 3 TX2023105   Smuggling of Perso…            3 N         2023-02-06          27
 4 TX2023288   Smuggling of Perso…            1 N         2023-02-24          21
 5 TX2023289   Smuggling of Perso…            1 N         2023-02-24          22
 6 TX2023291   Smuggling of Perso…            3 N         2023-02-24          20
 7 TX2023355   Smuggling of Perso…            4 N         2023-02-25          NA
 8 TX2023437   Smuggling of Perso…            5 N         2023-02-14          42
 9 TX2023479   Smuggling of Perso…            5 N         2023-03-04          NA
10 TX2023916   Smuggling of Perso…            7 N         2023-03-18          38
# ℹ 438 more rows
# ℹ 21 more variables: person_first_name <chr>, person_second_name <chr>,
#   person_third_name <chr>, person_last_name <chr>, officer_id <dbl>,
#   arrest_county <chr>, code <chr>, severity_code <chr>,
#   severity_code_clean <chr>, person_race_abbr <chr>,
#   person_gender_abbr <chr>, arrest_state <chr>, arrest_division <chr>,
#   arrest_id <dbl>, arrest_urn <chr>, arresting_officer <chr>, …
…
Now let’s see the White breakdown.

w_smuggling <- cat_ols |>
  group_by(arrest_county, arrest_state, person_race_abbr, charge_cat) |>
  filter(person_race_abbr == "W", charge_cat == "Smuggling/Trafficking of Persons") |> 
  summarise(appearances = n()) |> 
  arrange(desc(appearances))

`summarise()` has grouped output by 'arrest_county', 'arrest_state',
'person_race_abbr'. You can override using the `.groups` argument.

w_smuggling

# A tibble: 47 × 5
# Groups:   arrest_county, arrest_state, person_race_abbr [47]
   arrest_county arrest_state person_race_abbr charge_cat            appearances
   <chr>         <chr>        <chr>            <chr>                       <int>
 1 Kinney        TEXAS        W                Smuggling/Traffickin…         305
 2 El Paso       TEXAS        W                Smuggling/Traffickin…         230
 3 Hidalgo       TEXAS        W                Smuggling/Traffickin…         113
 4 Val Verde     TEXAS        W                Smuggling/Traffickin…         104
 5 Maverick      TEXAS        W                Smuggling/Traffickin…          87
 6 Uvalde        TEXAS        W                Smuggling/Traffickin…          79
 7 Zavala        TEXAS        W                Smuggling/Traffickin…          70
 8 Edwards       TEXAS        W                Smuggling/Traffickin…          50
 9 Webb          TEXAS        W                Smuggling/Traffickin…          45
10 Dimmit        TEXAS        W                Smuggling/Traffickin…          43
# ℹ 37 more rows
…
Now let’s see the Hispanic breakdown.

h_smuggling <- cat_ols |>
  group_by(arrest_county, arrest_state, person_race_abbr, charge_cat) |>
  filter(person_race_abbr == "H", charge_cat == "Smuggling/Trafficking of Persons") |> 
  summarise(appearances = n()) |> 
  arrange(desc(appearances))

`summarise()` has grouped output by 'arrest_county', 'arrest_state',
'person_race_abbr'. You can override using the `.groups` argument.

h_smuggling

# A tibble: 46 × 5
# Groups:   arrest_county, arrest_state, person_race_abbr [46]
   arrest_county arrest_state person_race_abbr charge_cat            appearances
   <chr>         <chr>        <chr>            <chr>                       <int>
 1 Kinney        TEXAS        H                Smuggling/Traffickin…        1347
 2 El Paso       TEXAS        H                Smuggling/Traffickin…        1230
 3 Hidalgo       TEXAS        H                Smuggling/Traffickin…         884
 4 Webb          TEXAS        H                Smuggling/Traffickin…         555
 5 Val Verde     TEXAS        H                Smuggling/Traffickin…         492
 6 Uvalde        TEXAS        H                Smuggling/Traffickin…         486
 7 Maverick      TEXAS        H                Smuggling/Traffickin…         475
 8 Zavala        TEXAS        H                Smuggling/Traffickin…         399
 9 Starr         TEXAS        H                Smuggling/Traffickin…         267
10 Edwards       TEXAS        H                Smuggling/Traffickin…         251
# ℹ 36 more rows
…
Looking into specific officers

Let’s see if any officers stick out as arresting more Black people than other races. We’ll filter their arrests to be more than 100 so we can ensure that there are a large # of arrests by a specific officer in general. (Otherwise findings wouldn’t be very significant.)

olsdata |> 
  tabyl(arresting_officer, person_race_abbr) |>
  adorn_totals("col", name = "col_total") |> 
  adorn_totals("row") |> 
  tibble() |> 
  arrange(desc(col_total)) |> 
  filter(col_total > 100)

# A tibble: 63 × 9
   arresting_officer     A     B     H     I     U     W   NA_ col_total
   <chr>             <dbl> <dbl> <dbl> <dbl> <dbl> <dbl> <dbl>     <dbl>
 1 Total                98  4187 44602     2    67  8822   857     58635
 2 <NA>                 98  1034 14302     2    67  1753     0     17256
 3 Derrick Hinojosa      0     2   296     0     0    42     0       340
 4 Jose Mendoza          0     2   269     0     0    45     6       322
 5 David Poland          0    32    79     0     0   143    34       288
 6 Juan Sauceda          0     3   210     0     0    26     3       242
 7 Jose Delafuente       0     1   217     0     0    17     6       241
 8 Arnold Rodriguez      0     0   197     0     0    11     7       215
 9 Sarah Oranday         0    28   159     0     0    25     0       212
10 Alejandro Morante     0    28   117     0     0    51     1       197
# ℹ 53 more rows
…
