Final Analysis – Operation Lone Star Project
…
We’ll load our libraries.

library(tidyverse)
library(janitor)

Importing cleaned data

Then we’ll import our cleaned data from our combined data sets.

olsdata <- read_rds("data-processed/02-combine.rds")

olsdata

# A tibble: 58,635 × 25
   primary_key charge              charge_count ethnicity charge_date person_age
   <chr>       <chr>                      <dbl> <chr>     <date>           <dbl>
 1 TX20234     Poss Marij < 2OZ               1 H         2023-01-03          27
 2 TX20234     Poss CS PG 2 >= 1G…            1 H         2023-01-03          27
 3 TX20235     WARRANT: ASSAULTIV…            1 H         2023-01-21          50
 4 TX20237     Criminal Trespass              1 H         2023-01-22          37
 5 TX20238     Criminal Trespass              1 H         2023-01-22          NA
 6 TX20239     Criminal Trespass              1 H         2023-01-22          26
 7 TX202310    Criminal Trespass              1 H         2023-01-22          21
 8 TX202311    Criminal Trespass              1 H         2023-01-22          NA
 9 TX202312    Criminal Trespass              1 H         2023-01-22          29
10 TX202313    Criminal Trespass              1 H         2023-01-22          NA
# ℹ 58,625 more rows
# ℹ 19 more variables: person_first_name <chr>, person_second_name <chr>,
#   person_third_name <chr>, person_last_name <chr>, officer_id <dbl>,
#   arrest_county <chr>, code <chr>, severity_code <chr>,
#   severity_code_clean <chr>, person_race_abbr <chr>,
#   person_gender_abbr <chr>, arrest_state <chr>, arrest_division <chr>,
#   arrest_id <dbl>, arrest_urn <chr>, arresting_officer <chr>, …
…
cat_ols |>
  count(charge_cat, charge)

# A tibble: 490 × 3
   charge_cat charge                                                           n
   <chr>      <chr>                                                        <int>
 1 Conspiracy Attempt And Conspiracy                                           7
 2 Conspiracy Attempt And Conspiracy (21 Usc Sec 963)                          1
 3 Conspiracy Attempt And Conspiracy (Other Title 21 Violations)               4
 4 Conspiracy Conspiracy (General/Other Title 21)                             10
 5 Drug       (FENTANYL) POSS CS PG 1 <1G                                      1
 6 Drug       (HEROIN) POSS CS PG 1 <1G                                        1
 7 Drug       Conspiracy To Possess With Intent To Distribute Controlled …   201
 8 Drug       Conspiracy To Sale/Manfct/Dist Controlled Substance            122
 9 Drug       Controlled Substance Offenses-Felony                           110
10 Drug       Controlled Substance Offenses-Misdemeanor                       11
# ℹ 480 more rows
…
Age:

First we’ll call olsdata and group by the person’s age, summarize by appearances, and arrange in descending order to see what age’s have the most arrest instances. Then we’ll put that in a new bucket, olsage, for later reference.

olsage <- olsdata |> 
  group_by(person_age) |> 
  summarise(appearances = n()) |>
  arrange(desc(appearances)) 

olsage

# A tibble: 81 × 2
   person_age appearances
        <dbl>       <int>
 1         NA        6119
 2         22        2462
 3         20        2457
 4         21        2378
 5         24        2354
 6         23        2341
 7         19        2321
 8         25        2206
 9         26        2069
10         27        2014
# ℹ 71 more rows

Now, if you click through the data, you’ll see some obvious entering errors, like ages that are in the negatives and people that are between 1 and 943 years old. Because of this, we’ve decided to filter ages to between 10 and 100 to only incorporate cases that are most likely accurate age enterings.

olsagerefined <- olsage |> 
  filter(between (person_age, 10, 100))

olsagerefined

# A tibble: 69 × 2
   person_age appearances
        <dbl>       <int>
 1         22        2462
 2         20        2457
 3         21        2378
 4         24        2354
 5         23        2341
 6         19        2321
 7         25        2206
 8         26        2069
 9         27        2014
10         28        1985
# ℹ 59 more rows
…
Now we’ll look at who is doing the arresting and where?

We’ll look into officers, ID, and county.

olsofficers <- olsdata |> 
  group_by(arresting_officer, officer_id, arrest_county) |> 
  summarise(appearances = n()) |>
  arrange(desc(appearances))

`summarise()` has grouped output by 'arresting_officer', 'officer_id'. You can
override using the `.groups` argument.

olsofficers

# A tibble: 7,500 × 4
# Groups:   arresting_officer, officer_id [3,159]
   arresting_officer officer_id arrest_county appearances
   <chr>                  <dbl> <chr>               <int>
 1 <NA>                   15952 Maverick              392
 2 <NA>                   15532 Maverick              339
 3 <NA>                   15834 Maverick              287
 4 Derrick Hinojosa          NA Cameron               278
 5 <NA>                   11522 Maverick              259
 6 Jose Mendoza              NA Cameron               233
 7 <NA>                   13362 Maverick              218
 8 <NA>                   11689 Maverick              216
 9 Jose Delafuente           NA Cameron               213
10 David Poland              NA Nueces                210
# ℹ 7,490 more rows
…
    default. = NA,
  
    marijuana = case_when(
        str_detect(charge, "Mari|MARI|Marj|MARJ|Drug Test|Schedule I/") ~ "YES"),
    
    default. = NA,
    
    drug_weapon = case_when(
          str_detect(charge, "DRUG/WEAPON") ~ "YES"),
    
    default. = NA   )

drug_ols |> count(drug_type, fentanyl, marijuana, drug_weapon)  

# A tibble: 234 × 6
# Groups:   charge [234]
   charge                         drug_type fentanyl marijuana drug_weapon     n
   <chr>                          <chr>     <chr>    <chr>     <chr>       <int>
 1 (FENTANYL) POSS CS PG 1 <1G    Fentanyl  YES      <NA>      <NA>            1
 2 (HEROIN) POSS CS PG 1 <1G      Heroin    <NA>     <NA>      <NA>            1
 3 Conspiracy To Possess With In… <NA>      <NA>     <NA>      <NA>          201
 4 Conspiracy To Sale/Manfct/Dis… <NA>      <NA>     <NA>      <NA>          122
 5 Controlled Substance Offenses… <NA>      <NA>     <NA>      <NA>          110
 6 Controlled Substance Offenses… <NA>      <NA>     <NA>      <NA>           11
 7 Del Cont Subs/Marij To Minor   Marijuana <NA>     YES       <NA>            1
 8 Del Marij 1/4 oz <5 lbs Use C… Marijuana <NA>     YES       <NA>            1
 9 Del Marij <1/4 oz DFZ IAT      Marijuana <NA>     YES       <NA>            1
10 Del Marij <= 1/4 OZ            Marijuana <NA>     YES       <NA>            3
# ℹ 224 more rows
…
Now let’s look at the solo charges and what drugs they are related too.

solo_drug_ols <-
  cat_ols |>   group_by(charge, charge_count) |>   filter(charge_cat == "Drug") |> mutate(
    fentanyl = case_when(
      str_detect(charge, "Fent|FENT|1-B|Schedule Ii/") ~ "YES"),
    marijuana = case_when(
      str_detect(charge, "Mari|MARI|Marj|MARJ|Drug Test|Schedule I/") ~ "YES"),
    default. = NA,) |>
  filter(charge_count == "1") 

solo_drug_ols |>
  count(charge, charge_count, fentanyl, marijuana)

# A tibble: 230 × 5
# Groups:   charge, charge_count [230]
   charge                                  charge_count fentanyl marijuana     n
   <chr>                                          <dbl> <chr>    <chr>     <int>
 1 (FENTANYL) POSS CS PG 1 <1G                        1 YES      <NA>          1
 2 (HEROIN) POSS CS PG 1 <1G                          1 <NA>     <NA>          1
 3 Conspiracy To Possess With Intent To D…            1 <NA>     <NA>        192
 4 Conspiracy To Sale/Manfct/Dist Control…            1 <NA>     <NA>        121
 5 Controlled Substance Offenses-Felony               1 <NA>     <NA>        103
 6 Controlled Substance Offenses-Misdemea…            1 <NA>     <NA>         11
 7 Del Marij 1/4 oz <5 lbs Use Child                  1 <NA>     YES           1
 8 Del Marij <1/4 oz DFZ IAT                          1 <NA>     YES           1
 9 Del Marij <= 1/4 OZ                                1 <NA>     YES           3
10 Del Marij <= 5 lbs > 1/4 oz                        1 <NA>     YES          15
# ℹ 220 more rows
…
Where are solo drug charges located?

solo_drug_ols |>
  group_by(arrest_county) |>  
  summarise(appearances = n()) |> 
  arrange(desc(appearances))

# A tibble: 64 × 2
   arrest_county appearances
   <chr>               <int>
 1 Hidalgo              3568
 2 Cameron              2291
 3 Starr                1422
 4 El Paso              1373
 5 Webb                 1096
 6 Ector                1084
 7 San Patricio          959
 8 Tom Green             800
 9 Pecos                 740
10 Uvalde                708
# ℹ 54 more rows
…
smuggle_ols <- cat_ols |>
    group_by(person_race_abbr, charge_cat, arrest_county) |>
    summarise(appearances = n()) |>
    arrange(desc(appearances)) |>
    filter(charge_cat == "Smuggling/Trafficking of Persons") |>
    select(!charge_cat)

`summarise()` has grouped output by 'person_race_abbr', 'charge_cat'. You can
override using the `.groups` argument.
Adding missing grouping variables: `charge_cat`

smuggle_ols

# A tibble: 163 × 4
# Groups:   person_race_abbr, charge_cat [6]
   charge_cat                       person_race_abbr arrest_county appearances
   <chr>                            <chr>            <chr>               <int>
 1 Smuggling/Trafficking of Persons H                Kinney               1347
 2 Smuggling/Trafficking of Persons H                El Paso              1230
 3 Smuggling/Trafficking of Persons H                Hidalgo               884
 4 Smuggling/Trafficking of Persons H                Webb                  555
 5 Smuggling/Trafficking of Persons H                Val Verde             492
 6 Smuggling/Trafficking of Persons H                Uvalde                486
 7 Smuggling/Trafficking of Persons H                Maverick              475
 8 Smuggling/Trafficking of Persons B                Kinney                448
 9 Smuggling/Trafficking of Persons H                Zavala                399
10 Smuggling/Trafficking of Persons W                Kinney                305
# ℹ 153 more rows
…
Let’s break down the smuggling category by county for Black offenders to see where they are most commonly being arrested (not where they are from necessarily).

b_smuggling <- cat_ols |>
  group_by(arrest_county, arrest_state, person_race_abbr, charge_cat) |>
  filter(person_race_abbr == "B", charge_cat == "Smuggling/Trafficking of Persons") |> 
  summarise(appearances = n()) |> 
  arrange(desc(appearances))

`summarise()` has grouped output by 'arrest_county', 'arrest_state',
'person_race_abbr'. You can override using the `.groups` argument.

b_smuggling

# A tibble: 38 × 5
# Groups:   arrest_county, arrest_state, person_race_abbr [38]
   arrest_county arrest_state person_race_abbr charge_cat            appearances
   <chr>         <chr>        <chr>            <chr>                       <int>
 1 Kinney        TEXAS        B                Smuggling/Traffickin…         448
 2 Val Verde     TEXAS        B                Smuggling/Traffickin…         130
 3 Maverick      TEXAS        B                Smuggling/Traffickin…         109
 4 Uvalde        TEXAS        B                Smuggling/Traffickin…          94
 5 Zavala        TEXAS        B                Smuggling/Traffickin…          73
 6 Edwards       TEXAS        B                Smuggling/Traffickin…          66
 7 Dimmit        TEXAS        B                Smuggling/Traffickin…          48
 8 Sutton        TEXAS        B                Smuggling/Traffickin…          34
 9 El Paso       TEXAS        B                Smuggling/Traffickin…          23
10 La Salle      TEXAS        B                Smuggling/Traffickin…          22
# ℹ 28 more rows
…
Now let’s see the breakdowns for other races, starting with white smuggling arrests.

w_smuggling <- cat_ols |>
  group_by(arrest_county, arrest_state, person_race_abbr, charge_cat) |>
  filter(person_race_abbr == "W", charge_cat == "Smuggling/Trafficking of Persons") |> 
  summarise(appearances = n()) |> 
  arrange(desc(appearances))

`summarise()` has grouped output by 'arrest_county', 'arrest_state',
'person_race_abbr'. You can override using the `.groups` argument.

w_smuggling

# A tibble: 47 × 5
# Groups:   arrest_county, arrest_state, person_race_abbr [47]
   arrest_county arrest_state person_race_abbr charge_cat            appearances
   <chr>         <chr>        <chr>            <chr>                       <int>
 1 Kinney        TEXAS        W                Smuggling/Traffickin…         305
 2 El Paso       TEXAS        W                Smuggling/Traffickin…         230
 3 Hidalgo       TEXAS        W                Smuggling/Traffickin…         113
 4 Val Verde     TEXAS        W                Smuggling/Traffickin…         104
 5 Maverick      TEXAS        W                Smuggling/Traffickin…          87
 6 Uvalde        TEXAS        W                Smuggling/Traffickin…          79
 7 Zavala        TEXAS        W                Smuggling/Traffickin…          70
 8 Edwards       TEXAS        W                Smuggling/Traffickin…          50
 9 Webb          TEXAS        W                Smuggling/Traffickin…          45
10 Dimmit        TEXAS        W                Smuggling/Traffickin…          43
# ℹ 37 more rows
…
Now let’s see the Hispanic breakdown.

h_smuggling <- cat_ols |>
  group_by(arrest_county, arrest_state, person_race_abbr, charge_cat) |>
  filter(person_race_abbr == "H", charge_cat == "Smuggling/Trafficking of Persons") |> 
  summarise(appearances = n()) |> 
  arrange(desc(appearances))

`summarise()` has grouped output by 'arrest_county', 'arrest_state',
'person_race_abbr'. You can override using the `.groups` argument.

h_smuggling

# A tibble: 46 × 5
# Groups:   arrest_county, arrest_state, person_race_abbr [46]
   arrest_county arrest_state person_race_abbr charge_cat            appearances
   <chr>         <chr>        <chr>            <chr>                       <int>
 1 Kinney        TEXAS        H                Smuggling/Traffickin…        1347
 2 El Paso       TEXAS        H                Smuggling/Traffickin…        1230
 3 Hidalgo       TEXAS        H                Smuggling/Traffickin…         884
 4 Webb          TEXAS        H                Smuggling/Traffickin…         555
 5 Val Verde     TEXAS        H                Smuggling/Traffickin…         492
 6 Uvalde        TEXAS        H                Smuggling/Traffickin…         486
 7 Maverick      TEXAS        H                Smuggling/Traffickin…         475
 8 Zavala        TEXAS        H                Smuggling/Traffickin…         399
 9 Starr         TEXAS        H                Smuggling/Traffickin…         267
10 Edwards       TEXAS        H                Smuggling/Traffickin…         251
# ℹ 36 more rows
…
Kinney

Across the board, Kinney has the highest smuggling arrests in each race, so it doesn’t seem like Black arrests are more common there than any other race. Regardless, we looked into the breakdown of arrests in Kinney county for Black people charged with smuggling crimes just to see if anything stuck out.

kinney_b_smuggling <- cat_ols |> 
  group_by(arrest_county, arrest_state, person_race_abbr, charge_cat) |> 
  filter(arrest_county == "Kinney", person_race_abbr == "B", charge_cat == "Smuggling/Trafficking of Persons") 

kinney_b_smuggling

# A tibble: 448 × 26
# Groups:   arrest_county, arrest_state, person_race_abbr, charge_cat [1]
   primary_key charge              charge_count ethnicity charge_date person_age
   <chr>       <chr>                      <dbl> <chr>     <date>           <dbl>
 1 TX202356    Smuggling of Perso…            5 N         2023-01-21          30
 2 TX202356    Smuggling of Perso…            2 N         2023-01-21          30
 3 TX2023105   Smuggling of Perso…            3 N         2023-02-06          27
 4 TX2023288   Smuggling of Perso…            1 N         2023-02-24          21
 5 TX2023289   Smuggling of Perso…            1 N         2023-02-24          22
 6 TX2023291   Smuggling of Perso…            3 N         2023-02-24          20
 7 TX2023355   Smuggling of Perso…            4 N         2023-02-25          NA
 8 TX2023437   Smuggling of Perso…            5 N         2023-02-14          42
 9 TX2023479   Smuggling of Perso…            5 N         2023-03-04          NA
10 TX2023916   Smuggling of Perso…            7 N         2023-03-18          38
# ℹ 438 more rows
# ℹ 20 more variables: person_first_name <chr>, person_second_name <chr>,
#   person_third_name <chr>, person_last_name <chr>, officer_id <dbl>,
#   arrest_county <chr>, code <chr>, severity_code <chr>,
#   severity_code_clean <chr>, person_race_abbr <chr>,
#   person_gender_abbr <chr>, arrest_state <chr>, arrest_division <chr>,
#   arrest_id <dbl>, arrest_urn <chr>, arresting_officer <chr>, …
…
Looking into specific officers

Let’s see if any officers stick out as arresting more Black people than other races. We’ll filter their arrests to be more than 100 so we can ensure that there are a large # of arrests by a specific officer in general. (Otherwise findings wouldn’t be very significant.)

olsdata |> 
  tabyl(arresting_officer, person_race_abbr) |>
  adorn_totals("col", name = "col_total") |> 
  adorn_totals("row") |> 
  tibble() |> 
  arrange(desc(col_total)) |> 
  filter(col_total > 100)

# A tibble: 63 × 9
   arresting_officer     A     B     H     I     U     W   NA_ col_total
   <chr>             <dbl> <dbl> <dbl> <dbl> <dbl> <dbl> <dbl>     <dbl>
 1 Total                98  4187 44602     2    67  8822   857     58635
 2 <NA>                 98  1034 14302     2    67  1753     0     17256
 3 Derrick Hinojosa      0     2   296     0     0    42     0       340
 4 Jose Mendoza          0     2   269     0     0    45     6       322
 5 David Poland          0    32    79     0     0   143    34       288
 6 Juan Sauceda          0     3   210     0     0    26     3       242
 7 Jose Delafuente       0     1   217     0     0    17     6       241
 8 Arnold Rodriguez      0     0   197     0     0    11     7       215
 9 Sarah Oranday         0    28   159     0     0    25     0       212
10 Alejandro Morante     0    28   117     0     0    51     1       197
# ℹ 53 more rows
…
